{
    "text_line": [
        {
            "confidence": 0.6764,
            "polygon": [
                [
                    1654,
                    2947
                ],
                [
                    1649,
                    2952
                ],
                [
                    444,
                    2952
                ],
                [
                    439,
                    2957
                ],
                [
                    454,
                    2972
                ],
                [
                    454,
                    2992
                ],
                [
                    449,
                    2997
                ],
                [
                    449,
                    3016
                ],
                [
                    454,
                    3021
                ],
                [
                    454,
                    3031
                ],
                [
                    459,
                    3036
                ],
                [
                    459,
                    3051
                ],
                [
                    454,
                    3056
                ],
                [
                    454,
                    3066
                ],
                [
                    459,
                    3071
                ],
                [
                    459,
                    3095
                ],
                [
                    464,
                    3100
                ],
                [
                    464,
                    3105
                ],
                [
                    474,
                    3115
                ],
                [
                    479,
                    3115
                ],
                [
                    483,
                    3120
                ],
                [
                    498,
                    3120
                ],
                [
                    503,
                    3125
                ],
                [
                    641,
                    3125
                ],
                [
                    646,
                    3130
                ],
                [
                    676,
                    3130
                ],
                [
                    681,
                    3125
                ],
                [
                    686,
                    3130
                ],
                [
                    691,
                    3125
                ],
                [
                    883,
                    3125
                ],
                [
                    888,
                    3120
                ],
                [
                    953,
                    3120
                ],
                [
                    958,
                    3125
                ],
                [
                    1032,
                    3125
                ],
                [
                    1037,
                    3130
                ],
                [
                    1071,
                    3130
                ],
                [
                    1076,
                    3125
                ],
                [
                    1081,
                    3125
                ],
                [
                    1086,
                    3130
                ],
                [
                    1091,
                    3125
                ],
                [
                    1155,
                    3125
                ],
                [
                    1160,
                    3130
                ],
                [
                    1279,
                    3130
                ],
                [
                    1283,
                    3135
                ],
                [
                    1288,
                    3130
                ],
                [
                    1293,
                    3135
                ],
                [
                    1303,
                    3135
                ],
                [
                    1308,
                    3130
                ],
                [
                    1313,
                    3130
                ],
                [
                    1318,
                    3135
                ],
                [
                    1323,
                    3135
                ],
                [
                    1328,
                    3130
                ],
                [
                    1367,
                    3130
                ],
                [
                    1372,
                    3125
                ],
                [
                    1377,
                    3130
                ],
                [
                    1382,
                    3125
                ],
                [
                    1629,
                    3125
                ],
                [
                    1634,
                    3130
                ],
                [
                    1644,
                    3130
                ],
                [
                    1649,
                    3125
                ],
                [
                    1871,
                    3125
                ],
                [
                    1876,
                    3130
                ],
                [
                    1881,
                    3125
                ],
                [
                    1886,
                    3130
                ],
                [
                    2375,
                    3130
                ],
                [
                    2380,
                    3135
                ],
                [
                    2424,
                    3135
                ],
                [
                    2429,
                    3130
                ],
                [
                    2434,
                    3130
                ],
                [
                    2439,
                    3125
                ],
                [
                    2444,
                    3125
                ],
                [
                    2444,
                    3120
                ],
                [
                    2449,
                    3115
                ],
                [
                    2449,
                    2972
                ],
                [
                    2444,
                    2967
                ],
                [
                    2444,
                    2952
                ],
                [
                    2429,
                    2952
                ],
                [
                    2424,
                    2947
                ],
                [
                    1950,
                    2947
                ],
                [
                    1945,
                    2952
                ],
                [
                    1940,
                    2952
                ],
                [
                    1935,
                    2947
                ],
                [
                    1930,
                    2952
                ],
                [
                    1920,
                    2952
                ],
                [
                    1916,
                    2947
                ],
                [
                    1911,
                    2947
                ],
                [
                    1906,
                    2952
                ],
                [
                    1901,
                    2952
                ],
                [
                    1896,
                    2947
                ],
                [
                    1851,
                    2947
                ],
                [
                    1846,
                    2952
                ],
                [
                    1664,
                    2952
                ],
                [
                    1659,
                    2947
                ]
            ]
        },
        {
            "confidence": 0.6723,
            "polygon": [
                [
                    1545,
                    2834
                ],
                [
                    1540,
                    2839
                ],
                [
                    1520,
                    2839
                ],
                [
                    1525,
                    2844
                ],
                [
                    1525,
                    2849
                ],
                [
                    1540,
                    2849
                ],
                [
                    1545,
                    2854
                ],
                [
                    1540,
                    2859
                ],
                [
                    1446,
                    2859
                ],
                [
                    1441,
                    2864
                ],
                [
                    770,
                    2864
                ],
                [
                    765,
                    2859
                ],
                [
                    760,
                    2864
                ],
                [
                    740,
                    2864
                ],
                [
                    735,
                    2859
                ],
                [
                    730,
                    2864
                ],
                [
                    725,
                    2859
                ],
                [
                    720,
                    2864
                ],
                [
                    716,
                    2859
                ],
                [
                    696,
                    2859
                ],
                [
                    691,
                    2864
                ],
                [
                    449,
                    2864
                ],
                [
                    444,
                    2869
                ],
                [
                    439,
                    2869
                ],
                [
                    444,
                    2874
                ],
                [
                    444,
                    2893
                ],
                [
                    439,
                    2898
                ],
                [
                    439,
                    2918
                ],
                [
                    434,
                    2923
                ],
                [
                    434,
                    2928
                ],
                [
                    439,
                    2928
                ],
                [
                    444,
                    2933
                ],
                [
                    1328,
                    2933
                ],
                [
                    1333,
                    2928
                ],
                [
                    1338,
                    2933
                ],
                [
                    1343,
                    2928
                ],
                [
                    1353,
                    2928
                ],
                [
                    1358,
                    2933
                ],
                [
                    1362,
                    2928
                ],
                [
                    1530,
                    2928
                ],
                [
                    1535,
                    2933
                ],
                [
                    1545,
                    2933
                ],
                [
                    1550,
                    2928
                ],
                [
                    1555,
                    2933
                ],
                [
                    1604,
                    2933
                ],
                [
                    1609,
                    2928
                ],
                [
                    1614,
                    2933
                ],
                [
                    1624,
                    2933
                ],
                [
                    1629,
                    2928
                ],
                [
                    1634,
                    2933
                ],
                [
                    1644,
                    2933
                ],
                [
                    1649,
                    2928
                ],
                [
                    1654,
                    2933
                ],
                [
                    1664,
                    2933
                ],
                [
                    1669,
                    2928
                ],
                [
                    2375,
                    2928
                ],
                [
                    2380,
                    2933
                ],
                [
                    2395,
                    2933
                ],
                [
                    2399,
                    2928
                ],
                [
                    2444,
                    2928
                ],
                [
                    2449,
                    2923
                ],
                [
                    2449,
                    2883
                ],
                [
                    2444,
                    2878
                ],
                [
                    2444,
                    2874
                ],
                [
                    2439,
                    2874
                ],
                [
                    2434,
                    2869
                ],
                [
                    2434,
                    2864
                ],
                [
                    2429,
                    2859
                ],
                [
                    2429,
                    2844
                ],
                [
                    2434,
                    2839
                ],
                [
                    2429,
                    2839
                ],
                [
                    2424,
                    2834
                ],
                [
                    2256,
                    2834
                ],
                [
                    2251,
                    2839
                ],
                [
                    2241,
                    2839
                ],
                [
                    2237,
                    2834
                ],
                [
                    2232,
                    2839
                ],
                [
                    2074,
                    2839
                ],
                [
                    2069,
                    2834
                ],
                [
                    2064,
                    2839
                ],
                [
                    2059,
                    2834
                ]
            ]
        },
        {
            "confidence": 0.6861,
            "polygon": [
                [
                    2404,
                    2681
                ],
                [
                    2399,
                    2686
                ],
                [
                    2350,
                    2686
                ],
                [
                    2345,
                    2691
                ],
                [
                    2019,
                    2691
                ],
                [
                    2014,
                    2696
                ],
                [
                    1911,
                    2696
                ],
                [
                    1906,
                    2701
                ],
                [
                    1743,
                    2701
                ],
                [
                    1738,
                    2696
                ],
                [
                    1506,
                    2696
                ],
                [
                    1501,
                    2691
                ],
                [
                    1279,
                    2691
                ],
                [
                    1274,
                    2696
                ],
                [
                    1185,
                    2696
                ],
                [
                    1180,
                    2691
                ],
                [
                    1175,
                    2696
                ],
                [
                    1170,
                    2691
                ],
                [
                    775,
                    2691
                ],
                [
                    770,
                    2696
                ],
                [
                    479,
                    2696
                ],
                [
                    474,
                    2701
                ],
                [
                    454,
                    2701
                ],
                [
                    449,
                    2706
                ],
                [
                    444,
                    2706
                ],
                [
                    444,
                    2726
                ],
                [
                    439,
                    2731
                ],
                [
                    439,
                    2770
                ],
                [
                    444,
                    2775
                ],
                [
                    444,
                    2785
                ],
                [
                    449,
                    2785
                ],
                [
                    454,
                    2790
                ],
                [
                    454,
                    2795
                ],
                [
                    459,
                    2800
                ],
                [
                    459,
                    2809
                ],
                [
                    464,
                    2814
                ],
                [
                    459,
                    2819
                ],
                [
                    459,
                    2834
                ],
                [
                    464,
                    2834
                ],
                [
                    469,
                    2839
                ],
                [
                    696,
                    2839
                ],
                [
                    701,
                    2834
                ],
                [
                    735,
                    2834
                ],
                [
                    740,
                    2829
                ],
                [
                    745,
                    2834
                ],
                [
                    750,
                    2829
                ],
                [
                    785,
                    2829
                ],
                [
                    780,
                    2829
                ],
                [
                    775,
                    2824
                ],
                [
                    780,
                    2819
                ],
                [
                    795,
                    2819
                ],
                [
                    799,
                    2814
                ],
                [
                    829,
                    2814
                ],
                [
                    834,
                    2809
                ],
                [
                    1338,
                    2809
                ],
                [
                    1343,
                    2814
                ],
                [
                    2049,
                    2814
                ],
                [
                    2054,
                    2819
                ],
                [
                    2217,
                    2819
                ],
                [
                    2222,
                    2814
                ],
                [
                    2449,
                    2814
                ],
                [
                    2454,
                    2809
                ],
                [
                    2454,
                    2795
                ],
                [
                    2449,
                    2790
                ],
                [
                    2449,
                    2701
                ],
                [
                    2444,
                    2696
                ],
                [
                    2444,
                    2691
                ],
                [
                    2439,
                    2691
                ],
                [
                    2434,
                    2686
                ],
                [
                    2429,
                    2686
                ],
                [
                    2424,
                    2681
                ]
            ]
        },
        {
            "confidence": 0.6802,
            "polygon": [
                [
                    1412,
                    2459
                ],
                [
                    1407,
                    2464
                ],
                [
                    464,
                    2464
                ],
                [
                    459,
                    2469
                ],
                [
                    439,
                    2469
                ],
                [
                    439,
                    2474
                ],
                [
                    444,
                    2479
                ],
                [
                    444,
                    2484
                ],
                [
                    449,
                    2484
                ],
                [
                    454,
                    2489
                ],
                [
                    454,
                    2509
                ],
                [
                    449,
                    2514
                ],
                [
                    454,
                    2519
                ],
                [
                    454,
                    2538
                ],
                [
                    444,
                    2548
                ],
                [
                    444,
                    2563
                ],
                [
                    439,
                    2568
                ],
                [
                    439,
                    2593
                ],
                [
                    444,
                    2597
                ],
                [
                    444,
                    2602
                ],
                [
                    459,
                    2602
                ],
                [
                    464,
                    2607
                ],
                [
                    691,
                    2607
                ],
                [
                    696,
                    2612
                ],
                [
                    765,
                    2612
                ],
                [
                    770,
                    2607
                ],
                [
                    933,
                    2607
                ],
                [
                    938,
                    2612
                ],
                [
                    1061,
                    2612
                ],
                [
                    1066,
                    2607
                ],
                [
                    1269,
                    2607
                ],
                [
                    1274,
                    2612
                ],
                [
                    1358,
                    2612
                ],
                [
                    1362,
                    2617
                ],
                [
                    1362,
                    2622
                ],
                [
                    1358,
                    2627
                ],
                [
                    1348,
                    2627
                ],
                [
                    1343,
                    2622
                ],
                [
                    1333,
                    2622
                ],
                [
                    1328,
                    2627
                ],
                [
                    1323,
                    2622
                ],
                [
                    1318,
                    2627
                ],
                [
                    992,
                    2627
                ],
                [
                    987,
                    2632
                ],
                [
                    992,
                    2632
                ],
                [
                    997,
                    2637
                ],
                [
                    1002,
                    2637
                ],
                [
                    1007,
                    2642
                ],
                [
                    1116,
                    2642
                ],
                [
                    1120,
                    2637
                ],
                [
                    1155,
                    2637
                ],
                [
                    1160,
                    2632
                ],
                [
                    1165,
                    2637
                ],
                [
                    1204,
                    2637
                ],
                [
                    1209,
                    2642
                ],
                [
                    1269,
                    2642
                ],
                [
                    1274,
                    2647
                ],
                [
                    1279,
                    2642
                ],
                [
                    1283,
                    2647
                ],
                [
                    1308,
                    2647
                ],
                [
                    1313,
                    2652
                ],
                [
                    1412,
                    2652
                ],
                [
                    1417,
                    2647
                ],
                [
                    1432,
                    2647
                ],
                [
                    1437,
                    2642
                ],
                [
                    1520,
                    2642
                ],
                [
                    1525,
                    2647
                ],
                [
                    1545,
                    2647
                ],
                [
                    1550,
                    2652
                ],
                [
                    1772,
                    2652
                ],
                [
                    1777,
                    2647
                ],
                [
                    1920,
                    2647
                ],
                [
                    1925,
                    2642
                ],
                [
                    1930,
                    2647
                ],
                [
                    1935,
                    2647
                ],
                [
                    1940,
                    2642
                ],
                [
                    2232,
                    2642
                ],
                [
                    2237,
                    2647
                ],
                [
                    2350,
                    2647
                ],
                [
                    2355,
                    2652
                ],
                [
                    2424,
                    2652
                ],
                [
                    2429,
                    2647
                ],
                [
                    2434,
                    2647
                ],
                [
                    2439,
                    2642
                ],
                [
                    2444,
                    2642
                ],
                [
                    2444,
                    2637
                ],
                [
                    2449,
                    2632
                ],
                [
                    2449,
                    2583
                ],
                [
                    2444,
                    2578
                ],
                [
                    2439,
                    2578
                ],
                [
                    2434,
                    2573
                ],
                [
                    2434,
                    2568
                ],
                [
                    2439,
                    2563
                ],
                [
                    2444,
                    2563
                ],
                [
                    2454,
                    2553
                ],
                [
                    2454,
                    2528
                ],
                [
                    2449,
                    2524
                ],
                [
                    2449,
                    2469
                ],
                [
                    2444,
                    2464
                ],
                [
                    2439,
                    2464
                ],
                [
                    2434,
                    2459
                ],
                [
                    2399,
                    2459
                ],
                [
                    2395,
                    2464
                ],
                [
                    2217,
                    2464
                ],
                [
                    2212,
                    2459
                ],
                [
                    1728,
                    2459
                ],
                [
                    1723,
                    2464
                ],
                [
                    1456,
                    2464
                ],
                [
                    1451,
                    2459
                ],
                [
                    1422,
                    2459
                ],
                [
                    1417,
                    2464
                ]
            ]
        },
        {
            "confidence": 0.6973,
            "polygon": [
                [
                    1975,
                    2346
                ],
                [
                    1970,
                    2351
                ],
                [
                    439,
                    2351
                ],
                [
                    434,
                    2356
                ],
                [
                    434,
                    2361
                ],
                [
                    439,
                    2366
                ],
                [
                    439,
                    2371
                ],
                [
                    444,
                    2376
                ],
                [
                    444,
                    2430
                ],
                [
                    439,
                    2435
                ],
                [
                    439,
                    2440
                ],
                [
                    444,
                    2445
                ],
                [
                    1827,
                    2445
                ],
                [
                    1832,
                    2440
                ],
                [
                    1891,
                    2440
                ],
                [
                    1896,
                    2445
                ],
                [
                    2429,
                    2445
                ],
                [
                    2434,
                    2440
                ],
                [
                    2449,
                    2440
                ],
                [
                    2454,
                    2435
                ],
                [
                    2454,
                    2415
                ],
                [
                    2449,
                    2410
                ],
                [
                    2449,
                    2356
                ],
                [
                    2444,
                    2351
                ],
                [
                    2320,
                    2351
                ],
                [
                    2316,
                    2346
                ]
            ]
        },
        {
            "confidence": 0.6938,
            "polygon": [
                [
                    483,
                    2233
                ],
                [
                    479,
                    2238
                ],
                [
                    444,
                    2238
                ],
                [
                    439,
                    2243
                ],
                [
                    439,
                    2247
                ],
                [
                    444,
                    2252
                ],
                [
                    444,
                    2257
                ],
                [
                    439,
                    2262
                ],
                [
                    439,
                    2277
                ],
                [
                    444,
                    2282
                ],
                [
                    444,
                    2292
                ],
                [
                    439,
                    2297
                ],
                [
                    439,
                    2326
                ],
                [
                    444,
                    2331
                ],
                [
                    1950,
                    2331
                ],
                [
                    1955,
                    2326
                ],
                [
                    1960,
                    2331
                ],
                [
                    1970,
                    2331
                ],
                [
                    1975,
                    2326
                ],
                [
                    1980,
                    2331
                ],
                [
                    1985,
                    2326
                ],
                [
                    1995,
                    2326
                ],
                [
                    1999,
                    2331
                ],
                [
                    2004,
                    2326
                ],
                [
                    2009,
                    2331
                ],
                [
                    2069,
                    2331
                ],
                [
                    2074,
                    2326
                ],
                [
                    2078,
                    2331
                ],
                [
                    2088,
                    2331
                ],
                [
                    2093,
                    2326
                ],
                [
                    2098,
                    2331
                ],
                [
                    2138,
                    2331
                ],
                [
                    2143,
                    2326
                ],
                [
                    2192,
                    2326
                ],
                [
                    2197,
                    2331
                ],
                [
                    2202,
                    2326
                ],
                [
                    2271,
                    2326
                ],
                [
                    2276,
                    2331
                ],
                [
                    2444,
                    2331
                ],
                [
                    2449,
                    2326
                ],
                [
                    2449,
                    2238
                ],
                [
                    2251,
                    2238
                ],
                [
                    2246,
                    2233
                ],
                [
                    1999,
                    2233
                ],
                [
                    1995,
                    2238
                ],
                [
                    1140,
                    2238
                ],
                [
                    1135,
                    2233
                ],
                [
                    869,
                    2233
                ],
                [
                    864,
                    2238
                ],
                [
                    740,
                    2238
                ],
                [
                    735,
                    2233
                ]
            ]
        },
        {
            "confidence": 0.686,
            "polygon": [
                [
                    1817,
                    2090
                ],
                [
                    1812,
                    2095
                ],
                [
                    1802,
                    2095
                ],
                [
                    1787,
                    2109
                ],
                [
                    1758,
                    2109
                ],
                [
                    1753,
                    2114
                ],
                [
                    1624,
                    2114
                ],
                [
                    1619,
                    2109
                ],
                [
                    1599,
                    2109
                ],
                [
                    1595,
                    2104
                ],
                [
                    1540,
                    2104
                ],
                [
                    1535,
                    2100
                ],
                [
                    819,
                    2100
                ],
                [
                    814,
                    2104
                ],
                [
                    454,
                    2104
                ],
                [
                    449,
                    2109
                ],
                [
                    439,
                    2109
                ],
                [
                    439,
                    2114
                ],
                [
                    444,
                    2119
                ],
                [
                    444,
                    2154
                ],
                [
                    439,
                    2159
                ],
                [
                    439,
                    2198
                ],
                [
                    444,
                    2203
                ],
                [
                    444,
                    2213
                ],
                [
                    592,
                    2213
                ],
                [
                    597,
                    2218
                ],
                [
                    2439,
                    2218
                ],
                [
                    2444,
                    2213
                ],
                [
                    2454,
                    2213
                ],
                [
                    2454,
                    2208
                ],
                [
                    2449,
                    2203
                ],
                [
                    2449,
                    2124
                ],
                [
                    2444,
                    2119
                ],
                [
                    2444,
                    2114
                ],
                [
                    2439,
                    2114
                ],
                [
                    2434,
                    2109
                ],
                [
                    2429,
                    2109
                ],
                [
                    2424,
                    2104
                ],
                [
                    2192,
                    2104
                ],
                [
                    2187,
                    2100
                ],
                [
                    2128,
                    2100
                ],
                [
                    2123,
                    2104
                ],
                [
                    2054,
                    2104
                ],
                [
                    2049,
                    2100
                ],
                [
                    2044,
                    2104
                ],
                [
                    2039,
                    2100
                ],
                [
                    2039,
                    2095
                ],
                [
                    2014,
                    2095
                ],
                [
                    2009,
                    2090
                ],
                [
                    2004,
                    2095
                ],
                [
                    1999,
                    2090
                ]
            ]
        },
        {
            "confidence": 0.6884,
            "polygon": [
                [
                    1446,
                    1873
                ],
                [
                    1441,
                    1878
                ],
                [
                    938,
                    1878
                ],
                [
                    933,
                    1883
                ],
                [
                    543,
                    1883
                ],
                [
                    538,
                    1878
                ],
                [
                    474,
                    1878
                ],
                [
                    469,
                    1883
                ],
                [
                    444,
                    1883
                ],
                [
                    444,
                    1893
                ],
                [
                    449,
                    1897
                ],
                [
                    449,
                    1902
                ],
                [
                    454,
                    1907
                ],
                [
                    449,
                    1912
                ],
                [
                    444,
                    1912
                ],
                [
                    444,
                    1971
                ],
                [
                    449,
                    1971
                ],
                [
                    459,
                    1981
                ],
                [
                    464,
                    1981
                ],
                [
                    469,
                    1986
                ],
                [
                    508,
                    1986
                ],
                [
                    513,
                    1991
                ],
                [
                    1249,
                    1991
                ],
                [
                    1254,
                    1996
                ],
                [
                    2074,
                    1996
                ],
                [
                    2078,
                    1991
                ],
                [
                    2108,
                    1991
                ],
                [
                    2113,
                    1996
                ],
                [
                    2172,
                    1996
                ],
                [
                    2177,
                    1991
                ],
                [
                    2434,
                    1991
                ],
                [
                    2439,
                    1986
                ],
                [
                    2444,
                    1986
                ],
                [
                    2444,
                    1981
                ],
                [
                    2449,
                    1976
                ],
                [
                    2449,
                    1888
                ],
                [
                    2444,
                    1883
                ],
                [
                    2444,
                    1878
                ],
                [
                    2311,
                    1878
                ],
                [
                    2306,
                    1873
                ],
                [
                    2301,
                    1878
                ],
                [
                    2296,
                    1873
                ],
                [
                    2227,
                    1873
                ],
                [
                    2222,
                    1878
                ],
                [
                    1945,
                    1878
                ],
                [
                    1940,
                    1873
                ],
                [
                    1664,
                    1873
                ],
                [
                    1659,
                    1878
                ],
                [
                    1649,
                    1878
                ],
                [
                    1644,
                    1873
                ],
                [
                    1634,
                    1873
                ],
                [
                    1629,
                    1878
                ],
                [
                    1624,
                    1873
                ]
            ]
        },
        {
            "confidence": 0.6897,
            "polygon": [
                [
                    483,
                    1612
                ],
                [
                    479,
                    1616
                ],
                [
                    444,
                    1616
                ],
                [
                    444,
                    1621
                ],
                [
                    454,
                    1631
                ],
                [
                    449,
                    1636
                ],
                [
                    454,
                    1641
                ],
                [
                    454,
                    1651
                ],
                [
                    449,
                    1656
                ],
                [
                    449,
                    1671
                ],
                [
                    444,
                    1676
                ],
                [
                    444,
                    1710
                ],
                [
                    439,
                    1715
                ],
                [
                    439,
                    1730
                ],
                [
                    444,
                    1735
                ],
                [
                    567,
                    1735
                ],
                [
                    572,
                    1740
                ],
                [
                    597,
                    1740
                ],
                [
                    602,
                    1745
                ],
                [
                    597,
                    1750
                ],
                [
                    587,
                    1750
                ],
                [
                    582,
                    1754
                ],
                [
                    523,
                    1754
                ],
                [
                    518,
                    1750
                ],
                [
                    479,
                    1750
                ],
                [
                    474,
                    1754
                ],
                [
                    459,
                    1754
                ],
                [
                    459,
                    1759
                ],
                [
                    464,
                    1764
                ],
                [
                    795,
                    1764
                ],
                [
                    799,
                    1769
                ],
                [
                    903,
                    1769
                ],
                [
                    908,
                    1774
                ],
                [
                    903,
                    1779
                ],
                [
                    790,
                    1779
                ],
                [
                    785,
                    1784
                ],
                [
                    444,
                    1784
                ],
                [
                    444,
                    1789
                ],
                [
                    439,
                    1794
                ],
                [
                    444,
                    1799
                ],
                [
                    444,
                    1809
                ],
                [
                    454,
                    1819
                ],
                [
                    454,
                    1838
                ],
                [
                    449,
                    1843
                ],
                [
                    444,
                    1843
                ],
                [
                    444,
                    1853
                ],
                [
                    449,
                    1853
                ],
                [
                    454,
                    1858
                ],
                [
                    528,
                    1858
                ],
                [
                    533,
                    1863
                ],
                [
                    933,
                    1863
                ],
                [
                    938,
                    1858
                ],
                [
                    1422,
                    1858
                ],
                [
                    1427,
                    1853
                ],
                [
                    1955,
                    1853
                ],
                [
                    1960,
                    1858
                ],
                [
                    2217,
                    1858
                ],
                [
                    2222,
                    1853
                ],
                [
                    2291,
                    1853
                ],
                [
                    2296,
                    1858
                ],
                [
                    2434,
                    1858
                ],
                [
                    2439,
                    1853
                ],
                [
                    2449,
                    1853
                ],
                [
                    2449,
                    1848
                ],
                [
                    2454,
                    1843
                ],
                [
                    2454,
                    1833
                ],
                [
                    2449,
                    1828
                ],
                [
                    2449,
                    1764
                ],
                [
                    2444,
                    1759
                ],
                [
                    2054,
                    1759
                ],
                [
                    2049,
                    1754
                ],
                [
                    1955,
                    1754
                ],
                [
                    1950,
                    1759
                ],
                [
                    1901,
                    1759
                ],
                [
                    1896,
                    1754
                ],
                [
                    1841,
                    1754
                ],
                [
                    1837,
                    1759
                ],
                [
                    1392,
                    1759
                ],
                [
                    1382,
                    1750
                ],
                [
                    1387,
                    1745
                ],
                [
                    1441,
                    1745
                ],
                [
                    1446,
                    1740
                ],
                [
                    1782,
                    1740
                ],
                [
                    1787,
                    1735
                ],
                [
                    2271,
                    1735
                ],
                [
                    2276,
                    1740
                ],
                [
                    2444,
                    1740
                ],
                [
                    2449,
                    1735
                ],
                [
                    2454,
                    1735
                ],
                [
                    2454,
                    1671
                ],
                [
                    2449,
                    1666
                ],
                [
                    2449,
                    1646
                ],
                [
                    2444,
                    1641
                ],
                [
                    2444,
                    1626
                ],
                [
                    2439,
                    1626
                ],
                [
                    2429,
                    1616
                ],
                [
                    2419,
                    1616
                ],
                [
                    2414,
                    1612
                ],
                [
                    2385,
                    1612
                ],
                [
                    2380,
                    1616
                ],
                [
                    1427,
                    1616
                ],
                [
                    1422,
                    1612
                ]
            ]
        },
        {
            "confidence": 0.676,
            "polygon": [
                [
                    479,
                    1207
                ],
                [
                    474,
                    1212
                ],
                [
                    483,
                    1222
                ],
                [
                    483,
                    1227
                ],
                [
                    479,
                    1232
                ],
                [
                    474,
                    1232
                ],
                [
                    469,
                    1237
                ],
                [
                    464,
                    1237
                ],
                [
                    459,
                    1242
                ],
                [
                    459,
                    1296
                ],
                [
                    464,
                    1301
                ],
                [
                    474,
                    1301
                ],
                [
                    479,
                    1306
                ],
                [
                    1140,
                    1306
                ],
                [
                    1145,
                    1311
                ],
                [
                    1185,
                    1311
                ],
                [
                    1190,
                    1306
                ],
                [
                    1195,
                    1311
                ],
                [
                    1199,
                    1306
                ],
                [
                    1204,
                    1311
                ],
                [
                    1234,
                    1311
                ],
                [
                    1239,
                    1306
                ],
                [
                    1244,
                    1311
                ],
                [
                    1387,
                    1311
                ],
                [
                    1392,
                    1316
                ],
                [
                    1407,
                    1316
                ],
                [
                    1412,
                    1321
                ],
                [
                    1437,
                    1321
                ],
                [
                    1441,
                    1326
                ],
                [
                    1437,
                    1331
                ],
                [
                    1348,
                    1331
                ],
                [
                    1343,
                    1326
                ],
                [
                    1323,
                    1326
                ],
                [
                    1318,
                    1331
                ],
                [
                    1283,
                    1331
                ],
                [
                    1279,
                    1326
                ],
                [
                    1274,
                    1331
                ],
                [
                    1269,
                    1326
                ],
                [
                    474,
                    1326
                ],
                [
                    469,
                    1331
                ],
                [
                    459,
                    1331
                ],
                [
                    459,
                    1385
                ],
                [
                    454,
                    1390
                ],
                [
                    454,
                    1414
                ],
                [
                    459,
                    1419
                ],
                [
                    498,
                    1419
                ],
                [
                    503,
                    1424
                ],
                [
                    627,
                    1424
                ],
                [
                    632,
                    1429
                ],
                [
                    637,
                    1424
                ],
                [
                    641,
                    1429
                ],
                [
                    651,
                    1429
                ],
                [
                    656,
                    1424
                ],
                [
                    661,
                    1424
                ],
                [
                    666,
                    1429
                ],
                [
                    671,
                    1424
                ],
                [
                    943,
                    1424
                ],
                [
                    948,
                    1429
                ],
                [
                    958,
                    1429
                ],
                [
                    962,
                    1434
                ],
                [
                    958,
                    1439
                ],
                [
                    938,
                    1439
                ],
                [
                    933,
                    1444
                ],
                [
                    730,
                    1444
                ],
                [
                    725,
                    1439
                ],
                [
                    533,
                    1439
                ],
                [
                    528,
                    1444
                ],
                [
                    464,
                    1444
                ],
                [
                    459,
                    1449
                ],
                [
                    464,
                    1454
                ],
                [
                    459,
                    1459
                ],
                [
                    464,
                    1464
                ],
                [
                    464,
                    1508
                ],
                [
                    469,
                    1508
                ],
                [
                    474,
                    1513
                ],
                [
                    498,
                    1513
                ],
                [
                    503,
                    1518
                ],
                [
                    977,
                    1518
                ],
                [
                    982,
                    1523
                ],
                [
                    1427,
                    1523
                ],
                [
                    1432,
                    1518
                ],
                [
                    1540,
                    1518
                ],
                [
                    1545,
                    1513
                ],
                [
                    1674,
                    1513
                ],
                [
                    1678,
                    1508
                ],
                [
                    1812,
                    1508
                ],
                [
                    1817,
                    1503
                ],
                [
                    1822,
                    1508
                ],
                [
                    1970,
                    1508
                ],
                [
                    1975,
                    1503
                ],
                [
                    2034,
                    1503
                ],
                [
                    2039,
                    1498
                ],
                [
                    2044,
                    1498
                ],
                [
                    2049,
                    1503
                ],
                [
                    2059,
                    1503
                ],
                [
                    2064,
                    1498
                ],
                [
                    2088,
                    1498
                ],
                [
                    2093,
                    1503
                ],
                [
                    2360,
                    1503
                ],
                [
                    2365,
                    1508
                ],
                [
                    2414,
                    1508
                ],
                [
                    2419,
                    1513
                ],
                [
                    2424,
                    1508
                ],
                [
                    2434,
                    1508
                ],
                [
                    2444,
                    1498
                ],
                [
                    2444,
                    1488
                ],
                [
                    2449,
                    1483
                ],
                [
                    2449,
                    1439
                ],
                [
                    2444,
                    1434
                ],
                [
                    2444,
                    1414
                ],
                [
                    2449,
                    1409
                ],
                [
                    2449,
                    1360
                ],
                [
                    2444,
                    1355
                ],
                [
                    2444,
                    1335
                ],
                [
                    2429,
                    1335
                ],
                [
                    2424,
                    1331
                ],
                [
                    2345,
                    1331
                ],
                [
                    2340,
                    1335
                ],
                [
                    2212,
                    1335
                ],
                [
                    2207,
                    1331
                ],
                [
                    2148,
                    1331
                ],
                [
                    2143,
                    1335
                ],
                [
                    2113,
                    1335
                ],
                [
                    2108,
                    1331
                ],
                [
                    2103,
                    1335
                ],
                [
                    2098,
                    1331
                ],
                [
                    2088,
                    1331
                ],
                [
                    2083,
                    1335
                ],
                [
                    2078,
                    1335
                ],
                [
                    2074,
                    1331
                ],
                [
                    2069,
                    1335
                ],
                [
                    2019,
                    1335
                ],
                [
                    2014,
                    1340
                ],
                [
                    1916,
                    1340
                ],
                [
                    1911,
                    1335
                ],
                [
                    1896,
                    1335
                ],
                [
                    1891,
                    1331
                ],
                [
                    1841,
                    1331
                ],
                [
                    1837,
                    1326
                ],
                [
                    1812,
                    1326
                ],
                [
                    1807,
                    1331
                ],
                [
                    1748,
                    1331
                ],
                [
                    1743,
                    1335
                ],
                [
                    1708,
                    1335
                ],
                [
                    1703,
                    1340
                ],
                [
                    1491,
                    1340
                ],
                [
                    1486,
                    1335
                ],
                [
                    1441,
                    1335
                ],
                [
                    1437,
                    1331
                ],
                [
                    1441,
                    1326
                ],
                [
                    1674,
                    1326
                ],
                [
                    1678,
                    1321
                ],
                [
                    1748,
                    1321
                ],
                [
                    1753,
                    1316
                ],
                [
                    1777,
                    1316
                ],
                [
                    1782,
                    1311
                ],
                [
                    1916,
                    1311
                ],
                [
                    1920,
                    1316
                ],
                [
                    1920,
                    1321
                ],
                [
                    1945,
                    1321
                ],
                [
                    1950,
                    1326
                ],
                [
                    1955,
                    1326
                ],
                [
                    1960,
                    1321
                ],
                [
                    1999,
                    1321
                ],
                [
                    2004,
                    1316
                ],
                [
                    2059,
                    1316
                ],
                [
                    2064,
                    1311
                ],
                [
                    2083,
                    1311
                ],
                [
                    2088,
                    1316
                ],
                [
                    2093,
                    1316
                ],
                [
                    2098,
                    1311
                ],
                [
                    2103,
                    1311
                ],
                [
                    2108,
                    1316
                ],
                [
                    2113,
                    1311
                ],
                [
                    2207,
                    1311
                ],
                [
                    2212,
                    1316
                ],
                [
                    2375,
                    1316
                ],
                [
                    2380,
                    1311
                ],
                [
                    2434,
                    1311
                ],
                [
                    2439,
                    1306
                ],
                [
                    2444,
                    1306
                ],
                [
                    2449,
                    1301
                ],
                [
                    2449,
                    1252
                ],
                [
                    2444,
                    1247
                ],
                [
                    2444,
                    1242
                ],
                [
                    2434,
                    1232
                ],
                [
                    2434,
                    1227
                ],
                [
                    2444,
                    1217
                ],
                [
                    2444,
                    1207
                ]
            ]
        },
        {
            "confidence": 0.6935,
            "polygon": [
                [
                    1965,
                    1099
                ],
                [
                    1960,
                    1104
                ],
                [
                    1733,
                    1104
                ],
                [
                    1728,
                    1109
                ],
                [
                    474,
                    1109
                ],
                [
                    469,
                    1114
                ],
                [
                    454,
                    1114
                ],
                [
                    454,
                    1123
                ],
                [
                    459,
                    1128
                ],
                [
                    459,
                    1133
                ],
                [
                    464,
                    1138
                ],
                [
                    464,
                    1158
                ],
                [
                    459,
                    1163
                ],
                [
                    464,
                    1168
                ],
                [
                    459,
                    1173
                ],
                [
                    464,
                    1178
                ],
                [
                    464,
                    1183
                ],
                [
                    474,
                    1183
                ],
                [
                    479,
                    1188
                ],
                [
                    1456,
                    1188
                ],
                [
                    1461,
                    1183
                ],
                [
                    1466,
                    1188
                ],
                [
                    2019,
                    1188
                ],
                [
                    2024,
                    1183
                ],
                [
                    2054,
                    1183
                ],
                [
                    2059,
                    1188
                ],
                [
                    2296,
                    1188
                ],
                [
                    2301,
                    1183
                ],
                [
                    2311,
                    1183
                ],
                [
                    2316,
                    1188
                ],
                [
                    2434,
                    1188
                ],
                [
                    2439,
                    1183
                ],
                [
                    2444,
                    1183
                ],
                [
                    2444,
                    1153
                ],
                [
                    2434,
                    1143
                ],
                [
                    2434,
                    1104
                ],
                [
                    2429,
                    1099
                ]
            ]
        },
        {
            "confidence": 0.6932,
            "polygon": [
                [
                    617,
                    981
                ],
                [
                    612,
                    985
                ],
                [
                    454,
                    985
                ],
                [
                    449,
                    990
                ],
                [
                    434,
                    990
                ],
                [
                    434,
                    995
                ],
                [
                    439,
                    995
                ],
                [
                    459,
                    1015
                ],
                [
                    459,
                    1084
                ],
                [
                    464,
                    1089
                ],
                [
                    1693,
                    1089
                ],
                [
                    1698,
                    1084
                ],
                [
                    1975,
                    1084
                ],
                [
                    1980,
                    1079
                ],
                [
                    2424,
                    1079
                ],
                [
                    2429,
                    1074
                ],
                [
                    2444,
                    1074
                ],
                [
                    2444,
                    995
                ],
                [
                    2439,
                    990
                ],
                [
                    2429,
                    990
                ],
                [
                    2424,
                    985
                ],
                [
                    2212,
                    985
                ],
                [
                    2207,
                    990
                ],
                [
                    2143,
                    990
                ],
                [
                    2138,
                    985
                ],
                [
                    2014,
                    985
                ],
                [
                    2009,
                    990
                ],
                [
                    1817,
                    990
                ],
                [
                    1812,
                    985
                ],
                [
                    730,
                    985
                ],
                [
                    725,
                    981
                ]
            ]
        },
        {
            "confidence": 0.6996,
            "polygon": [
                [
                    469,
                    877
                ],
                [
                    464,
                    882
                ],
                [
                    459,
                    882
                ],
                [
                    454,
                    887
                ],
                [
                    459,
                    892
                ],
                [
                    459,
                    897
                ],
                [
                    464,
                    902
                ],
                [
                    464,
                    931
                ],
                [
                    459,
                    936
                ],
                [
                    459,
                    951
                ],
                [
                    454,
                    956
                ],
                [
                    454,
                    961
                ],
                [
                    464,
                    961
                ],
                [
                    469,
                    966
                ],
                [
                    1841,
                    966
                ],
                [
                    1846,
                    971
                ],
                [
                    1960,
                    971
                ],
                [
                    1965,
                    966
                ],
                [
                    2434,
                    966
                ],
                [
                    2439,
                    961
                ],
                [
                    2444,
                    961
                ],
                [
                    2444,
                    931
                ],
                [
                    2449,
                    926
                ],
                [
                    2444,
                    921
                ],
                [
                    2444,
                    897
                ],
                [
                    2449,
                    892
                ],
                [
                    2449,
                    887
                ],
                [
                    2444,
                    882
                ],
                [
                    2439,
                    882
                ],
                [
                    2434,
                    877
                ]
            ]
        },
        {
            "confidence": 0.6988,
            "polygon": [
                [
                    498,
                    749
                ],
                [
                    493,
                    754
                ],
                [
                    474,
                    754
                ],
                [
                    474,
                    759
                ],
                [
                    479,
                    764
                ],
                [
                    479,
                    773
                ],
                [
                    474,
                    778
                ],
                [
                    474,
                    793
                ],
                [
                    469,
                    798
                ],
                [
                    469,
                    813
                ],
                [
                    464,
                    818
                ],
                [
                    464,
                    838
                ],
                [
                    459,
                    842
                ],
                [
                    459,
                    852
                ],
                [
                    469,
                    852
                ],
                [
                    474,
                    857
                ],
                [
                    1693,
                    857
                ],
                [
                    1698,
                    862
                ],
                [
                    1762,
                    862
                ],
                [
                    1767,
                    857
                ],
                [
                    1772,
                    862
                ],
                [
                    1777,
                    862
                ],
                [
                    1782,
                    857
                ],
                [
                    2187,
                    857
                ],
                [
                    2192,
                    862
                ],
                [
                    2197,
                    857
                ],
                [
                    2202,
                    857
                ],
                [
                    2207,
                    862
                ],
                [
                    2217,
                    862
                ],
                [
                    2222,
                    857
                ],
                [
                    2227,
                    862
                ],
                [
                    2296,
                    862
                ],
                [
                    2301,
                    857
                ],
                [
                    2325,
                    857
                ],
                [
                    2330,
                    862
                ],
                [
                    2409,
                    862
                ],
                [
                    2414,
                    857
                ],
                [
                    2444,
                    857
                ],
                [
                    2449,
                    852
                ],
                [
                    2449,
                    842
                ],
                [
                    2444,
                    838
                ],
                [
                    2444,
                    759
                ],
                [
                    2439,
                    759
                ],
                [
                    2434,
                    754
                ],
                [
                    1362,
                    754
                ],
                [
                    1358,
                    749
                ]
            ]
        },
        {
            "confidence": 0.6989,
            "polygon": [
                [
                    493,
                    631
                ],
                [
                    488,
                    635
                ],
                [
                    474,
                    635
                ],
                [
                    479,
                    640
                ],
                [
                    479,
                    655
                ],
                [
                    474,
                    660
                ],
                [
                    474,
                    690
                ],
                [
                    479,
                    695
                ],
                [
                    479,
                    714
                ],
                [
                    474,
                    719
                ],
                [
                    474,
                    724
                ],
                [
                    493,
                    724
                ],
                [
                    498,
                    729
                ],
                [
                    1659,
                    729
                ],
                [
                    1664,
                    734
                ],
                [
                    2434,
                    734
                ],
                [
                    2439,
                    729
                ],
                [
                    2444,
                    729
                ],
                [
                    2444,
                    640
                ],
                [
                    2439,
                    635
                ],
                [
                    2419,
                    635
                ],
                [
                    2414,
                    631
                ],
                [
                    2261,
                    631
                ],
                [
                    2256,
                    635
                ],
                [
                    1901,
                    635
                ],
                [
                    1896,
                    631
                ],
                [
                    1792,
                    631
                ],
                [
                    1787,
                    635
                ],
                [
                    1782,
                    635
                ],
                [
                    1777,
                    631
                ],
                [
                    1772,
                    631
                ],
                [
                    1767,
                    635
                ],
                [
                    1698,
                    635
                ],
                [
                    1693,
                    631
                ],
                [
                    1688,
                    635
                ],
                [
                    1683,
                    631
                ]
            ]
        },
        {
            "confidence": 0.6969,
            "polygon": [
                [
                    2212,
                    527
                ],
                [
                    2207,
                    532
                ],
                [
                    1698,
                    532
                ],
                [
                    1693,
                    537
                ],
                [
                    1545,
                    537
                ],
                [
                    1540,
                    532
                ],
                [
                    479,
                    532
                ],
                [
                    474,
                    537
                ],
                [
                    454,
                    537
                ],
                [
                    454,
                    552
                ],
                [
                    464,
                    561
                ],
                [
                    464,
                    566
                ],
                [
                    474,
                    576
                ],
                [
                    474,
                    606
                ],
                [
                    483,
                    606
                ],
                [
                    488,
                    611
                ],
                [
                    1955,
                    611
                ],
                [
                    1960,
                    616
                ],
                [
                    2098,
                    616
                ],
                [
                    2103,
                    611
                ],
                [
                    2113,
                    611
                ],
                [
                    2118,
                    616
                ],
                [
                    2123,
                    611
                ],
                [
                    2153,
                    611
                ],
                [
                    2158,
                    616
                ],
                [
                    2217,
                    616
                ],
                [
                    2222,
                    611
                ],
                [
                    2227,
                    616
                ],
                [
                    2232,
                    611
                ],
                [
                    2330,
                    611
                ],
                [
                    2335,
                    616
                ],
                [
                    2419,
                    616
                ],
                [
                    2424,
                    611
                ],
                [
                    2444,
                    611
                ],
                [
                    2444,
                    547
                ],
                [
                    2434,
                    537
                ],
                [
                    2434,
                    532
                ],
                [
                    2395,
                    532
                ],
                [
                    2390,
                    527
                ]
            ]
        },
        {
            "confidence": 0.6837,
            "polygon": [
                [
                    1940,
                    384
                ],
                [
                    1935,
                    389
                ],
                [
                    1802,
                    389
                ],
                [
                    1797,
                    394
                ],
                [
                    1446,
                    394
                ],
                [
                    1441,
                    389
                ],
                [
                    928,
                    389
                ],
                [
                    923,
                    394
                ],
                [
                    918,
                    389
                ],
                [
                    913,
                    394
                ],
                [
                    854,
                    394
                ],
                [
                    849,
                    389
                ],
                [
                    543,
                    389
                ],
                [
                    538,
                    394
                ],
                [
                    483,
                    394
                ],
                [
                    474,
                    404
                ],
                [
                    474,
                    419
                ],
                [
                    469,
                    423
                ],
                [
                    464,
                    423
                ],
                [
                    464,
                    497
                ],
                [
                    459,
                    502
                ],
                [
                    459,
                    507
                ],
                [
                    464,
                    507
                ],
                [
                    469,
                    512
                ],
                [
                    1585,
                    512
                ],
                [
                    1590,
                    517
                ],
                [
                    1698,
                    517
                ],
                [
                    1703,
                    512
                ],
                [
                    2424,
                    512
                ],
                [
                    2429,
                    507
                ],
                [
                    2434,
                    507
                ],
                [
                    2439,
                    502
                ],
                [
                    2444,
                    502
                ],
                [
                    2444,
                    419
                ],
                [
                    2429,
                    419
                ],
                [
                    2424,
                    414
                ],
                [
                    2424,
                    394
                ],
                [
                    2409,
                    394
                ],
                [
                    2404,
                    389
                ],
                [
                    2355,
                    389
                ],
                [
                    2350,
                    384
                ],
                [
                    2345,
                    389
                ],
                [
                    2330,
                    389
                ],
                [
                    2325,
                    384
                ],
                [
                    2320,
                    389
                ],
                [
                    2316,
                    384
                ],
                [
                    2311,
                    384
                ],
                [
                    2306,
                    389
                ],
                [
                    2291,
                    389
                ],
                [
                    2286,
                    384
                ],
                [
                    2281,
                    389
                ],
                [
                    2276,
                    389
                ],
                [
                    2271,
                    384
                ],
                [
                    2266,
                    384
                ],
                [
                    2261,
                    389
                ],
                [
                    2256,
                    389
                ],
                [
                    2251,
                    384
                ],
                [
                    2246,
                    384
                ],
                [
                    2241,
                    389
                ],
                [
                    2237,
                    389
                ],
                [
                    2232,
                    384
                ],
                [
                    2227,
                    389
                ],
                [
                    2029,
                    389
                ],
                [
                    2024,
                    384
                ]
            ]
        }
    ],
    "img_size": [
        3786,
        2558
    ]
}